$catalog-id=testCatalog
$catalog-version=Online
$approved=approvalstatus(code)[default='approved']
$catalogversion=catalogversion(catalog(id[default=$catalog-id]),version[default=$catalog-version])[unique=true,default=$catalog-id:$catalog-version]
$supercategories=supercategories(code,catalogversion(catalog(id[default=$catalog-id]),version[default=$catalog-version]))
$prices=europe1prices[translator=de.hybris.platform.europe1.jalo.impex.Europe1PricesTranslator]
$defaultCategory=defaultCategory(code, $catalogversion)

$currencies=USD	
$defaultCurrency=USD		
$defaultLanguage=en		
$deliveryCountries=US		
$paymentProvider=Mockup		

$applicationId=publicsector
$systemFormDefinition=orbeon:builder:1
$languages=en

$ruleType=ruleType(code)[default='ANY']

$jarResourceAssetTemplates=jar:de.hybris.platform.publicsectoracceleratoraddon.constants.PublicsectoracceleratoraddonConstants&/publicsectoracceleratoraddon/import/asset/template

INSERT_UPDATE Catalog;id[unique=true]
;$catalog-id

INSERT_UPDATE Currency;isocode[unique=true];active;conversion;digits;symbol
;USD;true;1.5;2;"$"

INSERT_UPDATE Unit;unitType[unique=true];code[unique=true];conversion
;pieces;pieces;1

INSERT_UPDATE CatalogVersion; catalog(id)[unique=true]; version[unique=true]; active;defaultCurrency(isocode)
;$catalog-id;$catalog-version;true;USD

INSERT_UPDATE BaseStore;uid[unique=true];catalogs(id);currencies(isocode);net;defaultCurrency(isocode);languages(isocode);defaultLanguage(isocode);paymentProvider		
;testStore;$catalog-id;$currencies;false;$defaultCurrency;$defaultLanguage;$defaultLanguage;$paymentProvider	

INSERT_UPDATE BaseSite;uid[unique=true];stores(uid)	
;testSite;testStore



# Create customer
INSERT_UPDATE Customer;uid[unique=true];name;password;europe1PriceFactory_upg(code,itemtype(code[default='UserPriceGroup']));sessionCurrency(isocode[default='USD']);sessionLanguage(isocode[default='en'])
;jane.citizen1@stateofrosebud.com;jane.citizen1@stateofrosebud.com;1234;;USD


INSERT_UPDATE PSAssetType;code[unique=true]
;vehicle
;car
	
INSERT_UPDATE PSAsset;code[unique=true];assetId;name;assetType(code)
;1;1;Mazda 3 Sedan Black 2015;car
;2;2;Suzuki Swift Green 2007;car

INSERT_UPDATE PSAssetOwner;uid[unique=true];assetCode[unique=true];startDate[dateformat=MM/dd/yy HH:mm:ss];endDate[dateformat=MM/dd/yy HH:mm:ss]
;jane.citizen1@stateofrosebud.com;1;10/13/16 08:07:47;10/13/18 08:07:47
;jane.citizen1@stateofrosebud.com;2;08/13/13 08:07:47;10/21/19 08:07:47


INSERT_UPDATE PSAssetAttribute;assetCode[unique=true];name[unique=true];value
;1;REGNO;ABC 123
;1;VEHICLE;2015 Black Mazda 3 Sedan
;1;VIN;ABCDE1234567890
;1;ENGNO;AB1234567890
;1;REGSERNO;987654321
;1;STOSTAT;None
;1;SANCAPP;None
;1;TXNDISP;None
;1;PICTURE;None
#;1;OWNER;None
#;1;PADDRESS;None
;2;REGNO;GUD 835
;2;VEHICLE;2007 Green Suzuki Swift Hatchback
;2;VIN;IDTVS8462965148
;2;ENGNO;EG2170385473
;2;REGSERNO;248610576
;2;STOSTAT;None
;2;SANCAPP;None
;2;TXNDISP;None
;2;PICTURE;None
#;2;OWNER;None
#;2;PADDRESS;None
	

INSERT_UPDATE PSAssetAttributeMapping;assetTypeCode[unique=true];attributeName[unique=true];attributeDisplayName[lang=$languages];attributeDisplayOrder
;car;REGNO;Registration number;1
;car;VEHICLE;Vehicle;2
;car;VIN;VIN / Chassis;4
;car;ENGNO;Engine number;3
;car;REGSERNO;Registration serial number;5
;car;STOSTAT;Stolen status;7
;car;SANCAPP;Sanctions applicable;6
;car;TXNDISP;Transfer in dispute;8
;car;PICTURE;Picture;9
;car;OWNER;Owner;10
;car;PADDRESS;Postal Address;11
;car;BILLS;Bills;12
;car;DOCUMENT;Documents;13

# CMS components velocity templates
INSERT_UPDATE RendererTemplate;code[unique=true];contextClass;rendererType(code)[default='velocity']
;asset_details_attributes_car;de.hybris.platform.publicsectorservices.template.velocity.context.PSAssetAttributesContext;

# CMS components and Email velocity templates
UPDATE RendererTemplate;code[unique=true];description[lang=$languages];templateScript[lang=$languages,translator=de.hybris.platform.commerceservices.impex.impl.FileLoaderValueTranslator]
;asset_details_attributes_car;		"Asset Type Car Template";		$jarResourceAssetTemplates/asset_details_attributes_car.vm
